%YAML 1.1
%TAG !u! tag:unity3d.com,2011:
--- !u!114 &11400000
MonoBehaviour:
  m_ObjectHideFlags: 0
  m_CorrespondingSourceObject: {fileID: 0}
  m_PrefabInstance: {fileID: 0}
  m_PrefabAsset: {fileID: 0}
  m_GameObject: {fileID: 0}
  m_Enabled: 1
  m_EditorHideFlags: 0
  m_Script: {fileID: 11500000, guid: 0b328df3d759a2847bba63d60cf2e35f, type: 3}
  m_Name: Levels
  m_EditorClassIdentifier: 
  m_LevelsData:
  - colorCode: {fileID: 2800000, guid: deae1af2b95b64340ba66e28b3bf6409, type: 3}
    brickTarget: 2
  - colorCode: {fileID: 2800000, guid: b3740dea1d623fa46982d139cce96326, type: 3}
    brickTarget: 120
  - colorCode: {fileID: 2800000, guid: dd185c5c53330e94787c1bc547b7c632, type: 3}
    brickTarget: 300
  - colorCode: {fileID: 2800000, guid: 2e37227e0a4159342bcbfa106ab87c6f, type: 3}
    brickTarget: 200
  m_BrickData:
  - colorCode: {r: 1, g: 1, b: 1, a: 1}
    brick:
      prefabReference: {fileID: 0}
      hitScore: 0
      destroyScore: 0
      hits: 0
  - colorCode: {r: 0, g: 0, b: 0, a: 1}
    brick:
      prefabReference: {fileID: 16446168323443206, guid: dd1c3c36fd374f8419b845ed01dcf6c5,
        type: 3}
      hitScore: 10
      destroyScore: 100
      hits: 1
  - colorCode: {r: 0.741, g: 0.475, b: 0.353, a: 1}
    brick:
      prefabReference: {fileID: 16446168323443206, guid: 77d93554e716bf64096ecade74f3902a,
        type: 3}
      hitScore: 50
      destroyScore: 150
      hits: 4
  - colorCode: {r: 0.92941177, g: 0.10980392, b: 0.14117648, a: 1}
    brick:
      prefabReference: {fileID: 16446168323443206, guid: dfcca301e6f41c84b8989649997c06d5,
        type: 3}
      hitScore: 10
      destroyScore: 300
      hits: 1
  - colorCode: {r: 1, g: 0.68235296, b: 0.7882353, a: 1}
    brick:
      prefabReference: {fileID: 16446168323443206, guid: f5c9b0634424e924e9f9adfebc147e44,
        type: 3}
      hitScore: 200
      destroyScore: 500
      hits: 2
  - colorCode: {r: 0.7254902, g: 0.47843137, b: 0.34117648, a: 1}
    brick:
      prefabReference: {fileID: 16446168323443206, guid: 77d93554e716bf64096ecade74f3902a,
        type: 3}
      hitScore: 50
      destroyScore: 150
      hits: 3
  - colorCode: {r: 0.13333334, g: 0.69411767, b: 0.29803923, a: 1}
    brick:
      prefabReference: {fileID: 16446168323443206, guid: b64294dc4a5ffea4baea41469f843094,
        type: 3}
      hitScore: 1
      destroyScore: 400
      hits: 1
